Comparing means with ANOVA
…
<img src="img/07/wolf.png" width="40%" style="display: block; margin: auto;" />

- The Wolf River in Tennessee flows past an abandoned site once used by the pesticide industry for dumping wastes, including chlordane (pesticide), aldrin, and dieldrin (both insecticides).

- These highly toxic organic compounds can cause various cancers and birth defects.

---

## Aldrin in the Wolf River

.pull-left[

```
## # A tibble: 30 x 2
##    aldrin depth 
##     <dbl> <chr> 
##  1    3.8 bottom
##  2    4.8 bottom
##  3    4.9 bottom
##  4    5.3 bottom
##  5    5.4 bottom
##  6    5.7 bottom
##  7    6.3 bottom
##  8    7.3 bottom
##  9    8.1 bottom
## 10    8.8 bottom
## # … with 20 more rows
```
…
